<?xml version="1.0" encoding="utf-8"?>
<!-- Generator: Adobe Illustrator 19.0.0, SVG Export Plug-In . SVG Version: 6.00 Build 0)  -->
<!DOCTYPE svg PUBLIC "-//W3C//DTD SVG 1.1//EN" "http://www.w3.org/Graphics/SVG/1.1/DTD/svg11.dtd">
<svg version="1.1" id="Layer_1" xmlns="http://www.w3.org/2000/svg" xmlns:xlink="http://www.w3.org/1999/xlink" x="0px" y="0px"
	 viewBox="0 0 32 32" style="enable-background:new 0 0 32 32;" xml:space="preserve">
<style type="text/css">
	.st0{fill:none;stroke:#000000;stroke-width:2;stroke-linecap:round;stroke-linejoin:round;stroke-miterlimit:10;}
</style>
<polyline id="XMLID_2_" class="st0" points="25,11 16,16 16,27 16,16 3,9 3,24 16,31 29,24 29,8 16,1 3,8 3,9 "/>
<line id="XMLID_4_" class="st0" x1="25" y1="16" x2="20" y2="19"/>
<line id="XMLID_5_" class="st0" x1="25" y1="20" x2="20" y2="23"/>
</svg>
