<svg xmlns="http://www.w3.org/2000/svg" viewBox="0 0 24 24">
	<g fill="none" stroke="#000" stroke-width="2" stroke-linecap="round" stroke-linejoin="round" stroke-miterlimit="10">
		<path d="M1,14V8c0-1.1,0.9-2,2-2h18c1.1,0,2,0.9,2,2v6L1,14z"/>
		<path d="M1,17v3c0,1.1,0.9,2,2,2h18c1.1,0,2-0.9,2-2v-3"/>
		<line x1="6" y1="12" x2="6" y2="16"/>
		<line x1="18" y1="12" x2="18" y2="16"/>
		<path d="M7,6V3c0-0.5,0.4-1,1-1h8c0.5,0,1,0.5,1,1v3"/>
	</g>
</svg>
