<?xml version="1.0" encoding="utf-8"?>
<!-- Generator: Adobe Illustrator 19.0.0, SVG Export Plug-In . SVG Version: 6.00 Build 0)  -->
<!DOCTYPE svg PUBLIC "-//W3C//DTD SVG 1.1//EN" "http://www.w3.org/Graphics/SVG/1.1/DTD/svg11.dtd">
<svg version="1.1" id="Layer_1" xmlns="http://www.w3.org/2000/svg" xmlns:xlink="http://www.w3.org/1999/xlink" x="0px" y="0px"
	 viewBox="0 0 24 24" enable-background="new 0 0 24 24" xml:space="preserve">
<line fill="none" stroke="#000000" stroke-width="2" stroke-linecap="round" stroke-linejoin="round" stroke-miterlimit="10" x1="6" y1="1" x2="6" y2="5"/>
<line fill="none" stroke="#000000" stroke-width="2" stroke-linecap="round" stroke-linejoin="round" stroke-miterlimit="10" x1="19" y1="1" x2="19" y2="5"/>
<g>
	<path d="M7.5,9C6.7,9,6,9.7,6,10.5S6.7,12,7.5,12S9,11.3,9,10.5S8.3,9,7.5,9L7.5,9z"/>
</g>
<g>
	<path d="M12.5,9C11.7,9,11,9.7,11,10.5s0.7,1.5,1.5,1.5s1.5-0.7,1.5-1.5S13.3,9,12.5,9L12.5,9z"/>
</g>
<g>
	<path d="M17.5,9C16.7,9,16,9.7,16,10.5s0.7,1.5,1.5,1.5s1.5-0.7,1.5-1.5S18.3,9,17.5,9L17.5,9z"/>
</g>
<g>
	<path d="M7.5,15C6.7,15,6,15.7,6,16.5S6.7,18,7.5,18S9,17.3,9,16.5S8.3,15,7.5,15L7.5,15z"/>
</g>
<g>
	<path d="M12.5,15c-0.8,0-1.5,0.7-1.5,1.5s0.7,1.5,1.5,1.5s1.5-0.7,1.5-1.5S13.3,15,12.5,15L12.5,15z"/>
</g>
<g>
	<path d="M17.5,15c-0.8,0-1.5,0.7-1.5,1.5s0.7,1.5,1.5,1.5s1.5-0.7,1.5-1.5S18.3,15,17.5,15L17.5,15z"/>
</g>
<path fill="none" stroke="#000000" stroke-width="2" stroke-linecap="round" stroke-linejoin="round" stroke-miterlimit="10" d="
	M6,3H4C2.9,3,2,3.9,2,5v15c0,1.1,0.9,2,2,2h17c1.1,0,2-0.9,2-2V5c0-1.1-0.9-2-2-2H9"/>
</svg>
