<?xml version="1.0" encoding="utf-8"?>
<!-- Generator: Adobe Illustrator 19.2.0, SVG Export Plug-In . SVG Version: 6.00 Build 0)  -->
<svg version="1.1" id="Layer_1" xmlns="http://www.w3.org/2000/svg" xmlns:xlink="http://www.w3.org/1999/xlink" x="0px" y="0px"
	 viewBox="0 0 24 24" style="enable-background:new 0 0 24 24;" xml:space="preserve">
<style type="text/css">
	.st0{fill:none;stroke:#000000;stroke-width:2;stroke-linecap:round;stroke-linejoin:round;stroke-miterlimit:10;}
</style>
<path class="st0" d="M12,17.8c1.8-1.3,3-3.4,3-5.8c0-3.9-3.1-7-7-7V3c0-1.1,0.9-2,2-2h11c1.1,0,2,0.9,2,2v18c0,1.1-0.9,2-2,2H10
	c-1.1,0-2-0.9-2-2v-2c-3.9,0-7-3.1-7-7c0-2.4,1.2-4.5,3-5.8"/>
<polyline class="st0" points="5,12 7,14 10,11 "/>
</svg>
