<?xml version="1.0" encoding="utf-8"?>
<!-- Generator: Adobe Illustrator 19.1.0, SVG Export Plug-In . SVG Version: 6.00 Build 0)  -->
<svg version="1.1" id="Layer_1" xmlns="http://www.w3.org/2000/svg" xmlns:xlink="http://www.w3.org/1999/xlink" x="0px" y="0px"
	 viewBox="0 0 24 24" style="enable-background:new 0 0 24 24;" xml:space="preserve">
<style type="text/css">
	.st0{fill:none;stroke:#000000;stroke-width:2;stroke-linecap:round;stroke-linejoin:round;stroke-miterlimit:10;}
</style>
<path id="XMLID_2_" class="st0" d="M16,15c1.5-1.6,2-3.9,2-6c0-3.5-1.3-8-6-8C7.3,1,6,5.5,6,9c0,2.1,0.5,4.4,2,6l-4,2
	c-1.5,0.7-3,1.6-3,3c0,1.8,1.4,3,3.1,3h15.7c1.7,0,3.1-1.2,3.1-3c0-1.2-1.6-2.3-3-3L16,15z"/>
</svg>
