<?xml version="1.0" encoding="utf-8"?>
<!-- Generator: Adobe Illustrator 19.0.0, SVG Export Plug-In . SVG Version: 6.00 Build 0)  -->
<!DOCTYPE svg PUBLIC "-//W3C//DTD SVG 1.1//EN" "http://www.w3.org/Graphics/SVG/1.1/DTD/svg11.dtd">
<svg version="1.1" id="Layer_1" xmlns="http://www.w3.org/2000/svg" xmlns:xlink="http://www.w3.org/1999/xlink" x="0px" y="0px"
	 viewBox="0 0 24 24" style="enable-background:new 0 0 24 24;" xml:space="preserve">
<style type="text/css">
	.st0{fill:none;stroke:#000000;stroke-width:2;stroke-linecap:round;stroke-linejoin:round;stroke-miterlimit:10;}
</style>
<path id="XMLID_1_" class="st0" d="M7,18h8l3,3l1-3h2c1.1,0,2-0.9,2-2V7c0-1.1-0.9-2-2-2H7C5.9,5,5,5.9,5,7v9C5,17.1,5.9,18,7,18z"
	/>
<path id="XMLID_2_" class="st0" d="M19,2c0-1.1-0.9-1-2-1L3,1C1.9,1,1,1.9,1,3v9c0,1.1-0.1,2,1,2"/>
<circle id="XMLID_3_" cx="11.5" cy="11.5" r="1"/>
<circle id="XMLID_5_" cx="16.5" cy="11.5" r="1"/>
</svg>
