<?xml version="1.0" encoding="utf-8"?>
<!-- Generator: Adobe Illustrator 19.1.0, SVG Export Plug-In . SVG Version: 6.00 Build 0)  -->
<svg version="1.1" id="Layer_1" xmlns="http://www.w3.org/2000/svg" xmlns:xlink="http://www.w3.org/1999/xlink" x="0px" y="0px"
	 viewBox="0 0 24 24" style="enable-background:new 0 0 24 24;" xml:space="preserve">
<style type="text/css">
	.st0{fill:none;stroke:#000000;stroke-width:2;stroke-linecap:round;stroke-linejoin:round;stroke-miterlimit:10;}
</style>
<path class="st0" d="M7.9,18.6C9.5,20.1,11.7,21,14,21c5,0,9-4,9-9s-4-9-9-9s-9,4-9,9"/>
<polyline id="XMLID_1_" class="st0" points="1,10 5,14 9,10 "/>
<polyline class="st0" points="14,7 14,12 17,15 "/>
</svg>
