<?xml version="1.0" encoding="utf-8"?>
<!-- Generator: Adobe Illustrator 19.2.0, SVG Export Plug-In . SVG Version: 6.00 Build 0)  -->
<svg version="1.1" id="Layer_1" xmlns="http://www.w3.org/2000/svg" xmlns:xlink="http://www.w3.org/1999/xlink" x="0px" y="0px"
	 viewBox="0 0 24 24" style="enable-background:new 0 0 24 24;" xml:space="preserve">
<style type="text/css">
	.st0{fill:none;stroke:#000000;stroke-width:2;stroke-linecap:round;stroke-linejoin:round;stroke-miterlimit:10;}
</style>
<circle id="XMLID_1_" class="st0" cx="12" cy="12" r="11"/>
<circle id="XMLID_2_" class="st0" cx="8.5" cy="7.5" r="1.5"/>
<circle id="XMLID_5_" class="st0" cx="15.5" cy="7.5" r="1.5"/>
<g>
	<path class="st0" d="M5.5,14c0.9,2.9,3.3,5,6.5,5s5.6-2.1,6.5-5"/>
</g>
</svg>
