<?xml version="1.0" encoding="utf-8"?>
<!-- Generator: Adobe Illustrator 19.0.0, SVG Export Plug-In . SVG Version: 6.00 Build 0)  -->
<!DOCTYPE svg PUBLIC "-//W3C//DTD SVG 1.1//EN" "http://www.w3.org/Graphics/SVG/1.1/DTD/svg11.dtd">
<svg version="1.1" id="Layer_1" xmlns="http://www.w3.org/2000/svg" xmlns:xlink="http://www.w3.org/1999/xlink" x="0px" y="0px"
	 viewBox="0 0 24 24" enable-background="new 0 0 24 24" xml:space="preserve">
<path id="XMLID_1_" fill="none" stroke="#000000" stroke-width="2" stroke-linecap="round" stroke-linejoin="round" stroke-miterlimit="10" d="
	M20,23H5c-1.1,0-2-0.9-2-2V3c0-1.1,0.9-2,2-2h15c1.1,0,2,0.9,2,2v18C22,22.1,21.1,23,20,23z"/>
<line id="XMLID_3_" fill="none" stroke="#000000" stroke-width="2" stroke-linecap="round" stroke-linejoin="round" stroke-miterlimit="10" x1="1" y1="6" x2="5" y2="6"/>
<line id="XMLID_5_" fill="none" stroke="#000000" stroke-width="2" stroke-linecap="round" stroke-linejoin="round" stroke-miterlimit="10" x1="1" y1="12" x2="5" y2="12"/>
<line id="XMLID_6_" fill="none" stroke="#000000" stroke-width="2" stroke-linecap="round" stroke-linejoin="round" stroke-miterlimit="10" x1="1" y1="18" x2="5" y2="18"/>
<path id="XMLID_7_" fill="none" stroke="#000000" stroke-width="2" stroke-linecap="round" stroke-linejoin="round" stroke-miterlimit="10" d="
	M14.9,14l1.7,0.7c0.7,0.3,1.4,0.8,1.4,1.7v0c0,0.9-0.6,1.6-1.4,1.6H9.4C8.6,18,8,17.3,8,16.4v0c0-0.9,0.8-1.6,1.4-1.8l1.7-0.6"/>
<path id="XMLID_2_" fill="none" stroke="#000000" stroke-width="2" stroke-linecap="round" stroke-linejoin="round" stroke-miterlimit="10" d="
	M11.1,14c-0.7-0.8-1.1-1.9-1.1-3c0-1.7,0.9-4,3-4c2.1,0,3,2.3,3,4c0,1.1-0.4,2.2-1.1,3"/>
</svg>
