<?xml version="1.0" encoding="utf-8"?>
<!-- Generator: Adobe Illustrator 19.0.0, SVG Export Plug-In . SVG Version: 6.00 Build 0)  -->
<!DOCTYPE svg PUBLIC "-//W3C//DTD SVG 1.1//EN" "http://www.w3.org/Graphics/SVG/1.1/DTD/svg11.dtd">
<svg version="1.1" id="Layer_1" xmlns="http://www.w3.org/2000/svg" xmlns:xlink="http://www.w3.org/1999/xlink" x="0px" y="0px"
	 viewBox="0 0 16 16" style="enable-background:new 0 0 16 16;" xml:space="preserve">
<style type="text/css">
	.st0{fill:none;stroke:#000000;stroke-width:2;stroke-linecap:round;stroke-linejoin:round;stroke-miterlimit:10;}
</style>
<circle class="st0" cx="8" cy="8" r="7"/>
<circle cx="10.5" cy="5.5" r="1.5"/>
<circle cx="5.5" cy="5.5" r="1.5"/>
<path class="st0" d="M5,9C4.7,9,4.5,9.2,4.6,9.5C4.9,10.9,6.5,12,8,12c1.5,0,3.1-1.1,3.4-2.5C11.5,9.2,11.3,9,11,9H5z"/>
</svg>
