<?xml version="1.0" encoding="utf-8"?>
<!-- Generator: Adobe Illustrator 19.2.0, SVG Export Plug-In . SVG Version: 6.00 Build 0)  -->
<svg version="1.1" id="Layer_1" xmlns="http://www.w3.org/2000/svg" xmlns:xlink="http://www.w3.org/1999/xlink" x="0px" y="0px"
	 viewBox="0 0 16 16" style="enable-background:new 0 0 16 16;" xml:space="preserve">
<style type="text/css">
	.st0{fill:none;stroke:#000000;stroke-width:2;stroke-linecap:round;stroke-linejoin:round;stroke-miterlimit:10;}
</style>
<path class="st0" d="M13,14H2c-0.5,0-1-0.4-1-1v-3l4-4L13,14h1c0.6,0,1-0.4,1-1V3c0-0.5-0.4-1-1-1H2C1.5,2,1,2.5,1,3v7"/>
<circle cx="11.5" cy="5.5" r="1.5"/>
</svg>
