<?xml version="1.0" encoding="utf-8"?>
<!-- Generator: Adobe Illustrator 19.0.0, SVG Export Plug-In . SVG Version: 6.00 Build 0)  -->
<!DOCTYPE svg PUBLIC "-//W3C//DTD SVG 1.1//EN" "http://www.w3.org/Graphics/SVG/1.1/DTD/svg11.dtd">
<svg version="1.1" id="Layer_1" xmlns="http://www.w3.org/2000/svg" xmlns:xlink="http://www.w3.org/1999/xlink" x="0px" y="0px"
	 viewBox="0 0 16 16" enable-background="new 0 0 16 16" xml:space="preserve">
<g id="XMLID_3_">
	
		<path id="XMLID_12_" fill="none" stroke="#000000" stroke-width="2" stroke-linecap="round" stroke-linejoin="round" stroke-miterlimit="10" d="
		M7.2,2.5l-6.1,11C0.7,14.1,1.2,15,2,15h12c0.9,0,1.3-1,0.8-1.8l-6-10.8C8.5,1.8,7.6,1.8,7.2,2.5z"/>
</g>
<line id="XMLID_2_" fill="none" stroke="#000000" stroke-width="2" stroke-linecap="round" stroke-linejoin="round" stroke-miterlimit="10" x1="8" y1="7" x2="8" y2="9"/>
<g id="XMLID_1_">
	<path id="XMLID_28_" d="M8,11c-0.6,0-1,0.4-1,1s0.4,1,1,1c0.6,0,1-0.4,1-1S8.6,11,8,11L8,11z"/>
</g>
</svg>
