<?xml version="1.0" encoding="utf-8"?>
<!-- Generator: Adobe Illustrator 19.2.0, SVG Export Plug-In . SVG Version: 6.00 Build 0)  -->
<svg version="1.1" id="Layer_1" xmlns="http://www.w3.org/2000/svg" xmlns:xlink="http://www.w3.org/1999/xlink" x="0px" y="0px"
	 viewBox="0 0 16 16" style="enable-background:new 0 0 16 16;" xml:space="preserve">
<style type="text/css">
	.st0{fill:none;stroke:#000000;stroke-width:2;stroke-linecap:round;stroke-linejoin:round;stroke-miterlimit:10;}
</style>
<image style="overflow:visible;opacity:0.19;" width="16" height="16" xlink:href="data:image/jpeg;base64,/9j/4AAQSkZJRgABAgEASABIAAD/7AARRHVja3kAAQAEAAAAHgAA/+4AIUFkb2JlAGTAAAAAAQMA
EAMCAwYAAAF2AAABjwAAAgb/2wCEABALCwsMCxAMDBAXDw0PFxsUEBAUGx8XFxcXFx8eFxoaGhoX
Hh4jJSclIx4vLzMzLy9AQEBAQEBAQEBAQEBAQEABEQ8PERMRFRISFRQRFBEUGhQWFhQaJhoaHBoa
JjAjHh4eHiMwKy4nJycuKzU1MDA1NUBAP0BAQEBAQEBAQEBAQP/CABEIABAAEAMBIgACEQEDEQH/
xABrAAEBAAAAAAAAAAAAAAAAAAAABQEBAAAAAAAAAAAAAAAAAAAAABABAQEAAAAAAAAAAAAAAAAA
BQQAEQABBAICAwEAAAAAAAAAAAAEESECAwEFEyRxgaFBEgEAAAAAAAAAAAAAAAAAAAAA/9oADAMB
AAIRAxEAAACgD//aAAgBAgABBQDf/9oACAEDAAEFAN//2gAIAQEAAQUAVVTvTKVTgTVKThTKKTvT
/9oACAECAgY/AH//2gAIAQMCBj8Af//aAAgBAQEGPwAjTaYgY+g8aWGljptxWSlZUqqvlfo+m3JA
wFAA0cPLHcbirlGy1ERPKr6I3OmHGAoAGllo47jctkZV1IiJ+uvwfc7kcY+g8aOXjjpty1xjXaqq
vlV9/wD/2Q==" transform="matrix(0.9999 0 0 0.9999 2.000347e-003 0)">
</image>
<circle class="st0" cx="8" cy="8" r="4"/>
<line class="st0" x1="10.8" y1="10.8" x2="12.9" y2="12.9"/>
<line class="st0" x1="3.1" y1="3.1" x2="5.2" y2="5.2"/>
<line class="st0" x1="5.2" y1="10.8" x2="3.1" y2="12.9"/>
<line class="st0" x1="12.9" y1="3.1" x2="10.8" y2="5.2"/>
<line class="st0" x1="4" y1="8" x2="1" y2="8"/>
<line class="st0" x1="15" y1="8" x2="12" y2="8"/>
<line class="st0" x1="8" y1="12" x2="8" y2="15"/>
<line class="st0" x1="8" y1="1" x2="8" y2="4"/>
</svg>
