<?xml version="1.0" encoding="utf-8"?>
<!-- Generator: Adobe Illustrator 19.1.0, SVG Export Plug-In . SVG Version: 6.00 Build 0)  -->
<svg version="1.1" id="Layer_1" xmlns="http://www.w3.org/2000/svg" xmlns:xlink="http://www.w3.org/1999/xlink" x="0px" y="0px"
	 viewBox="0 0 16 16" style="enable-background:new 0 0 16 16;" xml:space="preserve">
<style type="text/css">
	.st0{fill:#FFFFFF;stroke:#000000;stroke-width:2;stroke-linecap:round;stroke-linejoin:round;stroke-miterlimit:10;}
</style>
<line class="st0" x1="1" y1="4" x2="7" y2="4"/>
<line class="st0" x1="1" y1="8" x2="4" y2="8"/>
<line class="st0" x1="1" y1="12" x2="7" y2="12"/>
<line class="st0" x1="14" y1="8" x2="8" y2="8"/>
<line class="st0" x1="11" y1="5" x2="11" y2="11"/>
</svg>
