<?xml version="1.0" encoding="utf-8"?>
<!-- Generator: Adobe Illustrator 19.1.0, SVG Export Plug-In . SVG Version: 6.00 Build 0)  -->
<svg version="1.1" id="Layer_1" xmlns="http://www.w3.org/2000/svg" xmlns:xlink="http://www.w3.org/1999/xlink" x="0px" y="0px"
	 viewBox="0 0 72 72" style="enable-background:new 0 0 72 72;" xml:space="preserve">
<style type="text/css">
	.st0{fill:none;stroke:#000000;stroke-width:2;stroke-linecap:round;stroke-linejoin:round;stroke-miterlimit:10;}
</style>
<path class="st0" d="M47,14.7c-1.2-0.6-2.4-1.1-3.7-1.6c-0.8-0.2-1.4-0.9-1.6-1.7c0,0-0.2-2.6-0.3-3.8S40.3,4.9,39.8,4
	C39.4,3.4,39,3,38,3h-3.9c-1,0-1.4,0.4-1.8,1c-0.5,0.8-1.5,2.5-1.6,3.6s-0.3,3.8-0.3,3.8c-0.1,0.8-0.8,1.5-1.6,1.7
	c-1.3,0.4-2.6,0.9-3.7,1.6c-0.7,0.4-1.6,0.4-2.3-0.1c0,0-2-1.7-2.9-2.4c-0.9-0.7-2.7-1.2-3.7-1.4c-0.8-0.2-1.3-0.2-2,0.5L11.3,14
	c-0.7,0.7-0.7,1.3-0.6,2c0.2,0.9,0.7,2.8,1.4,3.7c0.7,0.9,2.4,2.9,2.4,2.9c0.5,0.7,0.5,1.6,0.1,2.3c-0.6,1.2-1.1,2.4-1.6,3.7
	c-0.2,0.8-0.9,1.4-1.7,1.6c0,0-2.6,0.2-3.8,0.3S4.9,31.7,4,32.2C3.4,32.6,3,33,3,34v3.9c0,1,0.4,1.4,1,1.8c0.8,0.5,2.5,1.5,3.6,1.6
	s3.8,0.3,3.8,0.3c0.8,0.1,1.5,0.8,1.7,1.6c0.4,1.3,0.9,2.6,1.6,3.7c0.4,0.7,0.4,1.6-0.1,2.3c0,0-1.7,2-2.4,2.9
	c-0.7,0.9-1.2,2.7-1.4,3.7c-0.2,0.8-0.2,1.3,0.5,2l2.8,2.8c0.7,0.7,1.3,0.7,2,0.6c0.9-0.2,2.8-0.7,3.7-1.4c0.9-0.7,2.9-2.4,2.9-2.4
	c0.7-0.5,1.6-0.5,2.3-0.1c1.2,0.6,2.4,1.1,3.7,1.6c0.8,0.2,1.4,0.9,1.6,1.7c0,0,0.2,2.6,0.3,3.8c0.1,1.1,1.1,2.8,1.6,3.6
	c0.4,0.7,0.8,1,1.8,1h3.9c1,0,1.4-0.4,1.8-1c0.5-0.8,1.5-2.5,1.6-3.6c0.1-1.1,0.3-3.8,0.3-3.8c0.1-0.8,0.8-1.5,1.6-1.7
	c1.3-0.4,2.6-0.9,3.7-1.6c0.7-0.4,1.6-0.4,2.3,0.1c0,0,2,1.7,2.9,2.4s2.7,1.2,3.7,1.4c0.8,0.2,1.3,0.2,2-0.5l2.8-2.8
	c0.7-0.7,0.7-1.3,0.6-2c-0.2-0.9-0.7-2.8-1.4-3.7s-2.4-2.9-2.4-2.9c-0.5-0.7-0.5-1.6-0.1-2.3c0.6-1.2,1.1-2.4,1.6-3.7
	c0.2-0.8,0.9-1.4,1.7-1.6c0,0,2.6-0.2,3.8-0.3c1.1-0.1,2.8-1.1,3.6-1.6c0.7-0.4,1-0.8,1-1.8v-3.9c0-1-0.4-1.4-1-1.8
	c-0.8-0.5-2.5-1.5-3.6-1.6c-1.1-0.1-3.8-0.3-3.8-0.3c-0.8-0.1-1.5-0.8-1.7-1.6c-0.4-1.3-0.9-2.5-1.6-3.7c-0.4-0.7-0.4-1.6,0.1-2.3
	c0,0,1.7-2,2.4-2.9c0.7-0.9,1.2-2.7,1.4-3.7c0.2-0.8,0.2-1.3-0.5-2L58,11.3c-0.7-0.7-1.3-0.7-2-0.6c-0.9,0.2-2.8,0.7-3.7,1.4
	c-0.9,0.7-2.9,2.4-2.9,2.4C48.7,15.1,47.8,15.1,47,14.7z"/>
<circle class="st0" cx="36" cy="36" r="11"/>
</svg>
