<?xml version="1.0" encoding="utf-8"?>
<!-- Generator: Adobe Illustrator 19.2.0, SVG Export Plug-In . SVG Version: 6.00 Build 0)  -->
<svg version="1.1" id="Layer_1" xmlns="http://www.w3.org/2000/svg" xmlns:xlink="http://www.w3.org/1999/xlink" x="0px" y="0px"
	 viewBox="0 0 72 72" style="enable-background:new 0 0 72 72;" xml:space="preserve">
<style type="text/css">
	.st0{fill:none;stroke:#231F20;stroke-width:2;stroke-linecap:round;stroke-linejoin:round;stroke-miterlimit:10;}
</style>
<path class="st0" d="M59,29.1c0.7,2.2,1,4.5,1,6.9c0,13.3-10.7,24-24,24c-6.6,0-12.6-2.7-17-7l3.5-3.5c0.9-0.9,0.3-2.5-1-2.5H9
	c-1.5,0-2,0.7-2,2v12.5c0,1.3,1.5,1.9,2.5,1l3.2-3.2c6,6,14.2,9.7,23.3,9.7c18.2,0,33-14.8,33-33c0-2.4-0.3-4.7-0.7-7"/>
<path class="st0" d="M13,42.9c-0.7-2.2-1-4.5-1-6.9c0-13.3,10.7-24,24-24c6.6,0,12.6,2.7,17,7l-3.5,3.5c-0.9,0.9-0.3,2.5,1,2.5H63
	c1.5,0,2-0.7,2-2V10.5c0-1.3-1.5-1.9-2.5-1l-3.2,3.2C53.4,6.7,45.1,3,36,3C17.8,3,3,17.8,3,36c0,2.4,0.3,4.7,0.7,7"/>
</svg>
