<?xml version="1.0" encoding="utf-8"?>
<!-- Generator: Adobe Illustrator 19.0.0, SVG Export Plug-In . SVG Version: 6.00 Build 0)  -->
<!DOCTYPE svg PUBLIC "-//W3C//DTD SVG 1.1//EN" "http://www.w3.org/Graphics/SVG/1.1/DTD/svg11.dtd">
<svg version="1.1" id="Layer_1" xmlns="http://www.w3.org/2000/svg" xmlns:xlink="http://www.w3.org/1999/xlink" x="0px" y="0px"
	 viewBox="0 0 48 48" style="enable-background:new 0 0 48 48;" xml:space="preserve">
<style type="text/css">
	.st0{fill:none;stroke:#000000;stroke-width:2;stroke-linecap:round;stroke-linejoin:round;stroke-miterlimit:10;}
</style>
<path class="st0" d="M45,37L34.4,26.3c-0.4-0.4-1-0.4-1.4,0l-2.9,2.8"/>
<path class="st0" d="M3,33v7c0,1.1,0.9,2,2,2h38c1.1,0,2-0.9,2-2V10c0-1.1-0.9-2-2-2H5c-1.1,0-2,0.9-2,2V33l12-11.7
	c0.4-0.4,1-0.4,1.4,0L33,37.6"/>
<circle class="st0" cx="28" cy="18" r="3"/>
</svg>
