<?xml version="1.0" encoding="utf-8"?>
<!-- Generator: Adobe Illustrator 19.2.0, SVG Export Plug-In . SVG Version: 6.00 Build 0)  -->
<svg version="1.1" id="Layer_1" xmlns="http://www.w3.org/2000/svg" xmlns:xlink="http://www.w3.org/1999/xlink" x="0px" y="0px"
	 viewBox="0 0 48 48" style="enable-background:new 0 0 48 48;" xml:space="preserve">
<style type="text/css">
	.st0{fill:none;stroke:#000000;stroke-width:2;stroke-linecap:round;stroke-linejoin:round;stroke-miterlimit:10;}
</style>
<line class="st0" x1="13" y1="32" x2="23" y2="32"/>
<line class="st0" x1="13" y1="26" x2="28" y2="26"/>
<line class="st0" x1="13" y1="20" x2="35" y2="20"/>
<line class="st0" x1="13" y1="14" x2="32" y2="14"/>
<path class="st0" d="M39,2H9C7.9,2,7,2.9,7,4v40c0,1.1,0.9,2,2,2c0,0,17.5,0,19,0s2.7-1.4,2.7-1.4l9-8.8c0,0,1.2-1.4,1.2-2.8
	c0-1.4,0-29,0-29C41,2.9,40.1,2,39,2z"/>
<path class="st0" d="M29,45.8V36c0-1.1,0.9-2,2-2h9.8"/>
</svg>
