<?xml version="1.0" encoding="utf-8"?>
<!-- Generator: Adobe Illustrator 19.0.0, SVG Export Plug-In . SVG Version: 6.00 Build 0)  -->
<!DOCTYPE svg PUBLIC "-//W3C//DTD SVG 1.1//EN" "http://www.w3.org/Graphics/SVG/1.1/DTD/svg11.dtd">
<svg version="1.1" id="Layer_1" xmlns="http://www.w3.org/2000/svg" xmlns:xlink="http://www.w3.org/1999/xlink" x="0px" y="0px"
	 viewBox="0 0 48 48" style="enable-background:new 0 0 48 48;" xml:space="preserve">
<style type="text/css">
	.st0{fill:none;stroke:#000000;stroke-width:2;stroke-linecap:round;stroke-linejoin:round;stroke-miterlimit:10;}
</style>
<path class="st0" d="M19,5.8c0,0-16,28.9-16,28.9C1.2,38.2,2.9,43,7.7,43c10.9,0,27.8,0,32.3,0c5.3,0,6.4-5.4,4.7-8.3
	c0,0-16-28.8-16-28.8C26.4,1.9,21.1,2.1,19,5.8z"/>
<path class="st0" d="M24,29c1.8,0,3.1-1.3,3.2-2.4l1.7-8.6c0.5-3.3-2.2-5-4.9-5h0c-2.7,0-5.5,1.7-4.9,5l1.7,8.6
	C20.9,27.7,22.2,29,24,29z"/>
<circle class="st0" cx="24" cy="36" r="3"/>
</svg>
