<?xml version="1.0" encoding="utf-8"?>
<!-- Generator: Adobe Illustrator 19.0.0, SVG Export Plug-In . SVG Version: 6.00 Build 0)  -->
<!DOCTYPE svg PUBLIC "-//W3C//DTD SVG 1.1//EN" "http://www.w3.org/Graphics/SVG/1.1/DTD/svg11.dtd">
<svg version="1.1" id="Layer_2" xmlns="http://www.w3.org/2000/svg" xmlns:xlink="http://www.w3.org/1999/xlink" x="0px" y="0px"
	 viewBox="0 0 48 48" style="enable-background:new 0 0 48 48;" xml:space="preserve">
<style type="text/css">
	.st0{fill:none;stroke:#000000;stroke-width:2;stroke-linecap:round;stroke-linejoin:round;stroke-miterlimit:10;}
</style>
<line class="st0" x1="19" y1="7" x2="29" y2="7"/>
<path class="st0" d="M41,7h3c1.1,0,2,0.9,2,2v35c0,1.1-0.9,2-2,2H4c-1.1,0-2-0.9-2-2V9c0-1.1,0.9-2,2-2h3"/>
<path class="st0" d="M14,12h-2c-0.6,0-1-0.4-1-1V3c0-0.5,0.4-1,1-1h2c0.6,0,1,0.5,1,1v8C15,11.6,14.6,12,14,12z"/>
<path class="st0" d="M36,13h-2c-0.5,0-1-0.4-1-1V3c0-0.5,0.5-1,1-1h2c0.5,0,1,0.5,1,1v9C37,12.6,36.5,13,36,13z"/>
<path class="st0" d="M34,20h4c0.5,0,1,0.5,1,1v4c0,0.6-0.5,1-1,1h-4c-0.5,0-1-0.4-1-1v-4C33,20.5,33.5,20,34,20z"/>
<path class="st0" d="M34,38h4c0.5,0,1-0.5,1-1v-4c0-0.6-0.5-1-1-1h-4c-0.5,0-1,0.4-1,1v4C33,37.6,33.5,38,34,38z"/>
<path class="st0" d="M22,32h4c0.5,0,1,0.4,1,1v4c0,0.5-0.5,1-1,1h-4c-0.5,0-1-0.5-1-1v-4C21,32.5,21.5,32,22,32z"/>
<path class="st0" d="M10,32h4c0.6,0,1,0.4,1,1v4c0,0.5-0.4,1-1,1h-4c-0.6,0-1-0.5-1-1v-4C9,32.5,9.4,32,10,32z"/>
<path class="st0" d="M10,20h4c0.6,0,1,0.5,1,1v4c0,0.6-0.4,1-1,1h-4c-0.6,0-1-0.4-1-1v-4C9,20.5,9.4,20,10,20z"/>
<path class="st0" d="M22,20h4c0.5,0,1,0.5,1,1v4c0,0.6-0.5,1-1,1h-4c-0.5,0-1-0.4-1-1v-4C21,20.5,21.5,20,22,20z"/>
</svg>
