<?xml version="1.0" encoding="utf-8"?>
<!-- Generator: Adobe Illustrator 19.0.0, SVG Export Plug-In . SVG Version: 6.00 Build 0)  -->
<!DOCTYPE svg PUBLIC "-//W3C//DTD SVG 1.1//EN" "http://www.w3.org/Graphics/SVG/1.1/DTD/svg11.dtd">
<svg version="1.1" id="Layer_2" xmlns="http://www.w3.org/2000/svg" xmlns:xlink="http://www.w3.org/1999/xlink" x="0px" y="0px"
	 viewBox="0 0 48 48" style="enable-background:new 0 0 48 48;" xml:space="preserve">
<style type="text/css">
	.st0{fill:none;stroke:#000000;stroke-width:2;stroke-linecap:round;stroke-linejoin:round;stroke-miterlimit:10;}
	.st1{display:none;fill:none;stroke:#000000;stroke-width:2;stroke-linecap:round;stroke-linejoin:round;stroke-miterlimit:10;}
</style>
<path class="st0" d="M40,30H8h3v14c0,0.5,0.4,1,1,1h24c0.5,0,1-0.5,1-1V30"/>
<path class="st0" d="M7,36H4c-1.1,0-2-0.9-2-2V18c0-1.1,0.9-2,2-2h40c1.1,0,2,0.9,2,2v16c0,1.1-0.9,2-2,2h-3"/>
<path class="st0" d="M37,12V5c0-1.1-0.9-2-2-2H18l-7,7v2v-2h6c0.5,0,1-0.4,1-1V3"/>
<line class="st0" x1="16" y1="35" x2="32" y2="35"/>
<line class="st0" x1="16" y1="39" x2="29" y2="39"/>
<line class="st1" x1="2" y1="24" x2="46" y2="24"/>
<circle cx="42" cy="20" r="1"/>
<circle cx="38" cy="20" r="1"/>
</svg>
