<?xml version="1.0" encoding="utf-8"?>
<!-- Generator: Adobe Illustrator 19.0.0, SVG Export Plug-In . SVG Version: 6.00 Build 0)  -->
<!DOCTYPE svg PUBLIC "-//W3C//DTD SVG 1.1//EN" "http://www.w3.org/Graphics/SVG/1.1/DTD/svg11.dtd">
<svg version="1.1" id="Layer_1" xmlns="http://www.w3.org/2000/svg" xmlns:xlink="http://www.w3.org/1999/xlink" x="0px" y="0px"
	 viewBox="0 0 48 48" style="enable-background:new 0 0 48 48;" xml:space="preserve">
<style type="text/css">
	.st0{fill:none;stroke:#000000;stroke-width:2;stroke-linecap:round;stroke-linejoin:round;stroke-miterlimit:10;}
</style>
<path class="st0" d="M1,40h25c7.7,0,14-6.3,14-14s-6.3-14-14-14s-14,6.3-14,14v1h5l-5,5l-5-5h5"/>
<path class="st0" d="M13.3,20.1c-3.2,1.6-7.2,1.1-9.8-1.6c-3.3-3.3-3.3-8.7,0-12c2.8-2.8,7-3.2,10.4-1.3C14.5,5.5,15,6,15,6l3-3v6
	h-6l3-3"/>
<polyline class="st0" points="37,40 42,40 42,35 47,40 42,45 42,40 "/>
</svg>
