<?xml version="1.0" encoding="utf-8"?>
<!-- Generator: Adobe Illustrator 19.0.0, SVG Export Plug-In . SVG Version: 6.00 Build 0)  -->
<!DOCTYPE svg PUBLIC "-//W3C//DTD SVG 1.1//EN" "http://www.w3.org/Graphics/SVG/1.1/DTD/svg11.dtd">
<svg version="1.1" id="Layer_1" xmlns="http://www.w3.org/2000/svg" xmlns:xlink="http://www.w3.org/1999/xlink" x="0px" y="0px"
	 viewBox="0 0 48 48" style="enable-background:new 0 0 48 48;" xml:space="preserve">
<style type="text/css">
	.st0{fill:none;stroke:#000000;stroke-width:2;stroke-linecap:round;stroke-linejoin:round;stroke-miterlimit:10;}
</style>
<path class="st0" d="M32,24v3c0,0.5-0.5,1-1,1H17c-0.5,0-1-0.5-1-1v-3c0,0-11.8,0-12,0c-1.1,0-2,0.9-2,2v11c0,1.1,0.9,2,2,2h40
	c1.1,0,2-0.9,2-2V26c0-1.1-0.9-2-2-2C44,24,32,24,32,24z"/>
<path class="st0" d="M45.5,24.7l-7.7-12.1C37.3,11.7,36.1,11,35,11H13c-1.1,0-2.3,0.7-2.8,1.6L2.8,24.4"/>
</svg>
