<?xml version="1.0" encoding="utf-8"?>
<!-- Generator: Adobe Illustrator 19.0.0, SVG Export Plug-In . SVG Version: 6.00 Build 0)  -->
<!DOCTYPE svg PUBLIC "-//W3C//DTD SVG 1.1//EN" "http://www.w3.org/Graphics/SVG/1.1/DTD/svg11.dtd">
<svg version="1.1" id="Layer_1" xmlns="http://www.w3.org/2000/svg" xmlns:xlink="http://www.w3.org/1999/xlink" x="0px" y="0px"
	 viewBox="0 0 48 48" style="enable-background:new 0 0 48 48;" xml:space="preserve">
<style type="text/css">
	.st0{fill:none;stroke:#000000;stroke-width:2;stroke-linecap:round;stroke-linejoin:round;stroke-miterlimit:10;}
</style>
<path class="st0" d="M45,39H3c-1.1,0-2-0.9-2-2v-3h15l1,1h14l1-1h15v3C47,38.1,46.1,39,45,39z"/>
<path class="st0" d="M3,30V9c0-1.1,0.9-2,2-2h38c1.1,0,2,0.9,2,2v21"/>
<line class="st0" x1="13" y1="12" x2="8" y2="17"/>
<line class="st0" x1="8" y1="23" x2="19" y2="12"/>
</svg>
