<?xml version="1.0" encoding="utf-8"?>
<!-- Generator: Adobe Illustrator 19.0.0, SVG Export Plug-In . SVG Version: 6.00 Build 0)  -->
<!DOCTYPE svg PUBLIC "-//W3C//DTD SVG 1.1//EN" "http://www.w3.org/Graphics/SVG/1.1/DTD/svg11.dtd">
<svg version="1.1" id="Layer_1" xmlns="http://www.w3.org/2000/svg" xmlns:xlink="http://www.w3.org/1999/xlink" x="0px" y="0px"
	 viewBox="0 0 48 48" style="enable-background:new 0 0 48 48;" xml:space="preserve">
<style type="text/css">
	.st0{fill:none;stroke:#000000;stroke-width:2;stroke-linecap:round;stroke-linejoin:round;stroke-miterlimit:10;}
</style>
<line class="st0" x1="13" y1="36" x2="25" y2="36"/>
<line class="st0" x1="13" y1="30" x2="30" y2="30"/>
<line class="st0" x1="13" y1="24" x2="37" y2="24"/>
<line class="st0" x1="13" y1="18" x2="34" y2="18"/>
<path class="st0" d="M44.8,34"/>
<path class="st0" d="M29,45.8"/>
<path class="st0" d="M41,5c1.1,0,2,0.9,2,2v37c0,1.1-0.9,2-2,2H9c-1.1,0-2-0.9-2-2V7c0-1.1,0.9-2,2-2h4V2v6V5h6V2v6V5h6V2v6V5h6V2v6
	V5h6V2v6V5H41z"/>
</svg>
