<?xml version="1.0" encoding="utf-8"?>
<!-- Generator: Adobe Illustrator 19.0.0, SVG Export Plug-In . SVG Version: 6.00 Build 0)  -->
<!DOCTYPE svg PUBLIC "-//W3C//DTD SVG 1.1//EN" "http://www.w3.org/Graphics/SVG/1.1/DTD/svg11.dtd">
<svg version="1.1" id="Layer_1" xmlns="http://www.w3.org/2000/svg" xmlns:xlink="http://www.w3.org/1999/xlink" x="0px" y="0px"
	 viewBox="0 0 48 48" style="enable-background:new 0 0 48 48;" xml:space="preserve">
<style type="text/css">
	.st0{fill:none;stroke:#000000;stroke-width:2;stroke-linecap:round;stroke-linejoin:round;stroke-miterlimit:10;}
</style>
<path class="st0" d="M30,21l14,14v4v3c0,0.5-0.5,1-1,1h-7v-5l-7-2v-5h-6v-3c-1.5,0.6-3.2,1-5,1c-7.2,0-13-5.8-13-13S10.8,3,18,3
	s13,5.8,13,13c0,3.2-1.2,6.1-3.1,8.4l12.3,12.3"/>
<circle class="st0" cx="15" cy="14" r="3"/>
</svg>
