<?xml version="1.0" encoding="utf-8"?>
<!-- Generator: Adobe Illustrator 19.0.0, SVG Export Plug-In . SVG Version: 6.00 Build 0)  -->
<!DOCTYPE svg PUBLIC "-//W3C//DTD SVG 1.1//EN" "http://www.w3.org/Graphics/SVG/1.1/DTD/svg11.dtd">
<svg version="1.1" id="Layer_1" xmlns="http://www.w3.org/2000/svg" xmlns:xlink="http://www.w3.org/1999/xlink" x="0px" y="0px"
	 viewBox="0 0 48 48" style="enable-background:new 0 0 48 48;" xml:space="preserve">
<style type="text/css">
	.st0{fill:none;stroke:#000000;stroke-width:2;stroke-linecap:round;stroke-linejoin:round;stroke-miterlimit:10;}
</style>
<g>
	<path class="st0" d="M23,8c1,3.8,4.5,5,6,5c0.6,0,1-0.4,1-1C30,10,30,1,20,1C10,1,10,10.1,10,12c0,0.6,0.5,1,1,1C19.2,13,23,8,23,8
		z"/>
	<path class="st0" d="M11,13c0,4.2,2,12,8.9,12C27,25,29,17.8,29,13"/>
	<path class="st0" d="M28.6,29.3c-1.6-0.5-1.9-1.3-2.3-1.6c-0.3-0.3-0.6-0.2-0.9,0C25.2,27.8,20,32,20,32s-5.2-4.2-5.5-4.4
		c-0.2-0.2-0.6-0.2-0.9,0c-0.4,0.3-0.7,1.1-2.3,1.6C10.2,29.6,9.4,29.9,9,30C5.8,30.8,6,32,6,35c0,1.9,0,3,0,3c0,1.1,0.8,2,1.9,2h14
		"/>
</g>
<circle class="st0" cx="33" cy="40" r="7"/>
<polyline class="st0" points="33,42 33,38 33,40 35,40 31,40 "/>
</svg>
